[gd_resource type="ShaderMaterial" load_steps=7 format=2]

[ext_resource path="res://shader-codes/water-shaders/pool.shader" type="Shader" id=1]
[ext_resource path="res://assets/water/pool/Water_001_NORM.jpg" type="Texture" id=3]
[ext_resource path="res://shader-codes/toon-shader/alpha-outline.tres" type="Material" id=4]

[sub_resource type="StreamTexture" id=3]
flags = 7
load_path = "res://.import/foam-map.png-0323af372d68d51de81ca96bc2fcf053.s3tc.stex"

[sub_resource type="OpenSimplexNoise" id=1]
seed = 2
period = 32.0
lacunarity = 2.5

[sub_resource type="NoiseTexture" id=2]
seamless = true
noise = SubResource( 1 )

[resource]
resource_local_to_scene = true
next_pass = ExtResource( 4 )
shader = ExtResource( 1 )
shader_param/water_color = Color( 0.211765, 0.345098, 0.34902, 0.313726 )
shader_param/foam_color = Color( 1, 1, 1, 1 )
shader_param/reflectiveness = 0.8
shader_param/agitation = 0.3
shader_param/specularity = 0.5
shader_param/foam_brightness = 0.5
shader_param/fixed_foam_brightness = false
shader_param/depth_based_foam = false
shader_param/depth_transparency = true
shader_param/foam_smoothness = 0.1
shader_param/foam_size = 0.4
shader_param/foam_displacement = 0.6
shader_param/ripples_speed_1 = Vector2( 1, 0 )
shader_param/ripples_speed_2 = Vector2( 0, 1 )
shader_param/uv_scale = Vector2( 1, 1 )
shader_param/uv_offset = Vector2( 0, 0 )
shader_param/foam_map = SubResource( 3 )
shader_param/foam_noise = SubResource( 2 )
shader_param/normalmap_texture = ExtResource( 3 )
