[gd_resource type="ShaderMaterial" load_steps=6 format=2]

[ext_resource path="res://shader-codes/water-shaders/pool.shader" type="Shader" id=1]
[ext_resource path="res://assets/water/pool/Water_002_NORM.jpg" type="Texture" id=2]
[ext_resource path="res://shader-codes/toon-shader/alpha-outline.tres" type="Material" id=4]

[sub_resource type="OpenSimplexNoise" id=1]
seed = 2
period = 32.0
lacunarity = 2.5

[sub_resource type="NoiseTexture" id=2]
seamless = true
noise = SubResource( 1 )

[resource]
resource_local_to_scene = true
next_pass = ExtResource( 4 )
shader = ExtResource( 1 )
shader_param/water_color = Color( 0.176471, 0.415686, 0.431373, 0.627451 )
shader_param/foam_color = Color( 1, 1, 1, 1 )
shader_param/reflectiveness = 0.8
shader_param/agitation = 0.3
shader_param/specularity = 0.5
shader_param/foam_brightness = 0.5
shader_param/fixed_foam_brightness = false
shader_param/depth_based_foam = false
shader_param/depth_transparency = false
shader_param/foam_smoothness = 0.0
shader_param/foam_size = 0.0
shader_param/foam_displacement = 0.0
shader_param/ripples_speed_1 = Vector2( 0, 12 )
shader_param/ripples_speed_2 = Vector2( 0, 12 )
shader_param/uv_scale = Vector2( 1, 1 )
shader_param/uv_offset = Vector2( 0, 0 )
shader_param/foam_noise = SubResource( 2 )
shader_param/normalmap_texture = ExtResource( 2 )
